^C:\USERS\IWANK\DOCUMENTS\DEVELOPMENT\OGRE\BUILD\BULLET3-3.24\SRC\BULLET3GEOMETRY\BULLET3GEOMETRY.DIR\RELWITHDEBINFO\B3CONVEXHULLCOMPUTER.OBJ|C:\USERS\IWANK\DOCUMENTS\DEVELOPMENT\OGRE\BUILD\BULLET3-3.24\SRC\BULLET3GEOMETRY\BULLET3GEOMETRY.DIR\RELWITHDEBINFO\B3GEOMETRYUTIL.OBJ
C:\USERS\IWANK\DOCUMENTS\DEVELOPMENT\OGRE\BUILD\BULLET3-3.24\SRC\BULLET3GEOMETRY\BULLET3GEOMETRY.DIR\RELWITHDEBINFO\B3CONVEXHULLCOMPUTER.OBJ
C:\WINDOWS\SYSTEM32\TZRES.DLL
C:\USERS\IWANK\DOCUMENTS\DEVELOPMENT\OGRE\BUILD\BULLET3-3.24\SRC\BULLET3GEOMETRY\BULLET3GEOMETRY.DIR\RELWITHDEBINFO\B3GEOMETRYUTIL.OBJ
C:\WINDOWS\GLOBALIZATION\SORTING\SORTDEFAULT.NLS
