^C:\USERS\IWANK\DOCUMENTS\DEVELOPMENT\OGRE\BUILD\BULLET3-3.24\SRC\LINEARMATH\BTALIGNEDALLOCATOR.CPP
/c /I"C:\USERS\IWANK\DOCUMENTS\DEVELOPMENT\OGRE\BUILD\BULLET3-3.24\SRC" /Zi /nologo /W3 /WX- /diagnostics:column /O2 /Ob1 /D _MBCS /D WIN32 /D NDEBUG /D _WIN64 /D USE_GRAPHICAL_BENCHMARK /D _CRT_SECURE_NO_WARNINGS /D _CRT_SECURE_NO_DEPRECATE /D _SCL_SECURE_NO_WARNINGS /D "CMAKE_INTDIR=\"RelWithDebInfo\"" /GF /Gm- /EHsc /MD /GS /Gy /fp:fast /Zc:wchar_t /Zc:forScope /Zc:inline /GR- /Fo"LINEARMATH.DIR\RELWITHDEBINFO\\" /Fd"C:\USERS\IWANK\DOCUMENTS\DEVELOPMENT\OGRE\BUILD\BULLET3-3.24\LIB\RELWITHDEBINFO\LINEARMATH.PDB" /external:W3 /Gd /TP /wd4244 /wd4267 C:\USERS\IWANK\DOCUMENTS\DEVELOPMENT\OGRE\BUILD\BULLET3-3.24\SRC\LINEARMATH\BTALIGNEDALLOCATOR.CPP
^C:\USERS\IWANK\DOCUMENTS\DEVELOPMENT\OGRE\BUILD\BULLET3-3.24\SRC\LINEARMATH\BTCONVEXHULL.CPP
/c /I"C:\USERS\IWANK\DOCUMENTS\DEVELOPMENT\OGRE\BUILD\BULLET3-3.24\SRC" /Zi /nologo /W3 /WX- /diagnostics:column /O2 /Ob1 /D _MBCS /D WIN32 /D NDEBUG /D _WIN64 /D USE_GRAPHICAL_BENCHMARK /D _CRT_SECURE_NO_WARNINGS /D _CRT_SECURE_NO_DEPRECATE /D _SCL_SECURE_NO_WARNINGS /D "CMAKE_INTDIR=\"RelWithDebInfo\"" /GF /Gm- /EHsc /MD /GS /Gy /fp:fast /Zc:wchar_t /Zc:forScope /Zc:inline /GR- /Fo"LINEARMATH.DIR\RELWITHDEBINFO\\" /Fd"C:\USERS\IWANK\DOCUMENTS\DEVELOPMENT\OGRE\BUILD\BULLET3-3.24\LIB\RELWITHDEBINFO\LINEARMATH.PDB" /external:W3 /Gd /TP /wd4244 /wd4267 C:\USERS\IWANK\DOCUMENTS\DEVELOPMENT\OGRE\BUILD\BULLET3-3.24\SRC\LINEARMATH\BTCONVEXHULL.CPP
^C:\USERS\IWANK\DOCUMENTS\DEVELOPMENT\OGRE\BUILD\BULLET3-3.24\SRC\LINEARMATH\BTCONVEXHULLCOMPUTER.CPP
/c /I"C:\USERS\IWANK\DOCUMENTS\DEVELOPMENT\OGRE\BUILD\BULLET3-3.24\SRC" /Zi /nologo /W3 /WX- /diagnostics:column /O2 /Ob1 /D _MBCS /D WIN32 /D NDEBUG /D _WIN64 /D USE_GRAPHICAL_BENCHMARK /D _CRT_SECURE_NO_WARNINGS /D _CRT_SECURE_NO_DEPRECATE /D _SCL_SECURE_NO_WARNINGS /D "CMAKE_INTDIR=\"RelWithDebInfo\"" /GF /Gm- /EHsc /MD /GS /Gy /fp:fast /Zc:wchar_t /Zc:forScope /Zc:inline /GR- /Fo"LINEARMATH.DIR\RELWITHDEBINFO\\" /Fd"C:\USERS\IWANK\DOCUMENTS\DEVELOPMENT\OGRE\BUILD\BULLET3-3.24\LIB\RELWITHDEBINFO\LINEARMATH.PDB" /external:W3 /Gd /TP /wd4244 /wd4267 C:\USERS\IWANK\DOCUMENTS\DEVELOPMENT\OGRE\BUILD\BULLET3-3.24\SRC\LINEARMATH\BTCONVEXHULLCOMPUTER.CPP
^C:\USERS\IWANK\DOCUMENTS\DEVELOPMENT\OGRE\BUILD\BULLET3-3.24\SRC\LINEARMATH\BTGEOMETRYUTIL.CPP
/c /I"C:\USERS\IWANK\DOCUMENTS\DEVELOPMENT\OGRE\BUILD\BULLET3-3.24\SRC" /Zi /nologo /W3 /WX- /diagnostics:column /O2 /Ob1 /D _MBCS /D WIN32 /D NDEBUG /D _WIN64 /D USE_GRAPHICAL_BENCHMARK /D _CRT_SECURE_NO_WARNINGS /D _CRT_SECURE_NO_DEPRECATE /D _SCL_SECURE_NO_WARNINGS /D "CMAKE_INTDIR=\"RelWithDebInfo\"" /GF /Gm- /EHsc /MD /GS /Gy /fp:fast /Zc:wchar_t /Zc:forScope /Zc:inline /GR- /Fo"LINEARMATH.DIR\RELWITHDEBINFO\\" /Fd"C:\USERS\IWANK\DOCUMENTS\DEVELOPMENT\OGRE\BUILD\BULLET3-3.24\LIB\RELWITHDEBINFO\LINEARMATH.PDB" /external:W3 /Gd /TP /wd4244 /wd4267 C:\USERS\IWANK\DOCUMENTS\DEVELOPMENT\OGRE\BUILD\BULLET3-3.24\SRC\LINEARMATH\BTGEOMETRYUTIL.CPP
^C:\USERS\IWANK\DOCUMENTS\DEVELOPMENT\OGRE\BUILD\BULLET3-3.24\SRC\LINEARMATH\BTPOLARDECOMPOSITION.CPP
/c /I"C:\USERS\IWANK\DOCUMENTS\DEVELOPMENT\OGRE\BUILD\BULLET3-3.24\SRC" /Zi /nologo /W3 /WX- /diagnostics:column /O2 /Ob1 /D _MBCS /D WIN32 /D NDEBUG /D _WIN64 /D USE_GRAPHICAL_BENCHMARK /D _CRT_SECURE_NO_WARNINGS /D _CRT_SECURE_NO_DEPRECATE /D _SCL_SECURE_NO_WARNINGS /D "CMAKE_INTDIR=\"RelWithDebInfo\"" /GF /Gm- /EHsc /MD /GS /Gy /fp:fast /Zc:wchar_t /Zc:forScope /Zc:inline /GR- /Fo"LINEARMATH.DIR\RELWITHDEBINFO\\" /Fd"C:\USERS\IWANK\DOCUMENTS\DEVELOPMENT\OGRE\BUILD\BULLET3-3.24\LIB\RELWITHDEBINFO\LINEARMATH.PDB" /external:W3 /Gd /TP /wd4244 /wd4267 C:\USERS\IWANK\DOCUMENTS\DEVELOPMENT\OGRE\BUILD\BULLET3-3.24\SRC\LINEARMATH\BTPOLARDECOMPOSITION.CPP
^C:\USERS\IWANK\DOCUMENTS\DEVELOPMENT\OGRE\BUILD\BULLET3-3.24\SRC\LINEARMATH\BTQUICKPROF.CPP
/c /I"C:\USERS\IWANK\DOCUMENTS\DEVELOPMENT\OGRE\BUILD\BULLET3-3.24\SRC" /Zi /nologo /W3 /WX- /diagnostics:column /O2 /Ob1 /D _MBCS /D WIN32 /D NDEBUG /D _WIN64 /D USE_GRAPHICAL_BENCHMARK /D _CRT_SECURE_NO_WARNINGS /D _CRT_SECURE_NO_DEPRECATE /D _SCL_SECURE_NO_WARNINGS /D "CMAKE_INTDIR=\"RelWithDebInfo\"" /GF /Gm- /EHsc /MD /GS /Gy /fp:fast /Zc:wchar_t /Zc:forScope /Zc:inline /GR- /Fo"LINEARMATH.DIR\RELWITHDEBINFO\\" /Fd"C:\USERS\IWANK\DOCUMENTS\DEVELOPMENT\OGRE\BUILD\BULLET3-3.24\LIB\RELWITHDEBINFO\LINEARMATH.PDB" /external:W3 /Gd /TP /wd4244 /wd4267 C:\USERS\IWANK\DOCUMENTS\DEVELOPMENT\OGRE\BUILD\BULLET3-3.24\SRC\LINEARMATH\BTQUICKPROF.CPP
^C:\USERS\IWANK\DOCUMENTS\DEVELOPMENT\OGRE\BUILD\BULLET3-3.24\SRC\LINEARMATH\BTREDUCEDVECTOR.CPP
/c /I"C:\USERS\IWANK\DOCUMENTS\DEVELOPMENT\OGRE\BUILD\BULLET3-3.24\SRC" /Zi /nologo /W3 /WX- /diagnostics:column /O2 /Ob1 /D _MBCS /D WIN32 /D NDEBUG /D _WIN64 /D USE_GRAPHICAL_BENCHMARK /D _CRT_SECURE_NO_WARNINGS /D _CRT_SECURE_NO_DEPRECATE /D _SCL_SECURE_NO_WARNINGS /D "CMAKE_INTDIR=\"RelWithDebInfo\"" /GF /Gm- /EHsc /MD /GS /Gy /fp:fast /Zc:wchar_t /Zc:forScope /Zc:inline /GR- /Fo"LINEARMATH.DIR\RELWITHDEBINFO\\" /Fd"C:\USERS\IWANK\DOCUMENTS\DEVELOPMENT\OGRE\BUILD\BULLET3-3.24\LIB\RELWITHDEBINFO\LINEARMATH.PDB" /external:W3 /Gd /TP /wd4244 /wd4267 C:\USERS\IWANK\DOCUMENTS\DEVELOPMENT\OGRE\BUILD\BULLET3-3.24\SRC\LINEARMATH\BTREDUCEDVECTOR.CPP
^C:\USERS\IWANK\DOCUMENTS\DEVELOPMENT\OGRE\BUILD\BULLET3-3.24\SRC\LINEARMATH\BTSERIALIZER.CPP
/c /I"C:\USERS\IWANK\DOCUMENTS\DEVELOPMENT\OGRE\BUILD\BULLET3-3.24\SRC" /Zi /nologo /W3 /WX- /diagnostics:column /O2 /Ob1 /D _MBCS /D WIN32 /D NDEBUG /D _WIN64 /D USE_GRAPHICAL_BENCHMARK /D _CRT_SECURE_NO_WARNINGS /D _CRT_SECURE_NO_DEPRECATE /D _SCL_SECURE_NO_WARNINGS /D "CMAKE_INTDIR=\"RelWithDebInfo\"" /GF /Gm- /EHsc /MD /GS /Gy /fp:fast /Zc:wchar_t /Zc:forScope /Zc:inline /GR- /Fo"LINEARMATH.DIR\RELWITHDEBINFO\\" /Fd"C:\USERS\IWANK\DOCUMENTS\DEVELOPMENT\OGRE\BUILD\BULLET3-3.24\LIB\RELWITHDEBINFO\LINEARMATH.PDB" /external:W3 /Gd /TP /wd4244 /wd4267 C:\USERS\IWANK\DOCUMENTS\DEVELOPMENT\OGRE\BUILD\BULLET3-3.24\SRC\LINEARMATH\BTSERIALIZER.CPP
^C:\USERS\IWANK\DOCUMENTS\DEVELOPMENT\OGRE\BUILD\BULLET3-3.24\SRC\LINEARMATH\BTSERIALIZER64.CPP
/c /I"C:\USERS\IWANK\DOCUMENTS\DEVELOPMENT\OGRE\BUILD\BULLET3-3.24\SRC" /Zi /nologo /W3 /WX- /diagnostics:column /O2 /Ob1 /D _MBCS /D WIN32 /D NDEBUG /D _WIN64 /D USE_GRAPHICAL_BENCHMARK /D _CRT_SECURE_NO_WARNINGS /D _CRT_SECURE_NO_DEPRECATE /D _SCL_SECURE_NO_WARNINGS /D "CMAKE_INTDIR=\"RelWithDebInfo\"" /GF /Gm- /EHsc /MD /GS /Gy /fp:fast /Zc:wchar_t /Zc:forScope /Zc:inline /GR- /Fo"LINEARMATH.DIR\RELWITHDEBINFO\\" /Fd"C:\USERS\IWANK\DOCUMENTS\DEVELOPMENT\OGRE\BUILD\BULLET3-3.24\LIB\RELWITHDEBINFO\LINEARMATH.PDB" /external:W3 /Gd /TP /wd4244 /wd4267 C:\USERS\IWANK\DOCUMENTS\DEVELOPMENT\OGRE\BUILD\BULLET3-3.24\SRC\LINEARMATH\BTSERIALIZER64.CPP
^C:\USERS\IWANK\DOCUMENTS\DEVELOPMENT\OGRE\BUILD\BULLET3-3.24\SRC\LINEARMATH\BTTHREADS.CPP
/c /I"C:\USERS\IWANK\DOCUMENTS\DEVELOPMENT\OGRE\BUILD\BULLET3-3.24\SRC" /Zi /nologo /W3 /WX- /diagnostics:column /O2 /Ob1 /D _MBCS /D WIN32 /D NDEBUG /D _WIN64 /D USE_GRAPHICAL_BENCHMARK /D _CRT_SECURE_NO_WARNINGS /D _CRT_SECURE_NO_DEPRECATE /D _SCL_SECURE_NO_WARNINGS /D "CMAKE_INTDIR=\"RelWithDebInfo\"" /GF /Gm- /EHsc /MD /GS /Gy /fp:fast /Zc:wchar_t /Zc:forScope /Zc:inline /GR- /Fo"LINEARMATH.DIR\RELWITHDEBINFO\\" /Fd"C:\USERS\IWANK\DOCUMENTS\DEVELOPMENT\OGRE\BUILD\BULLET3-3.24\LIB\RELWITHDEBINFO\LINEARMATH.PDB" /external:W3 /Gd /TP /wd4244 /wd4267 C:\USERS\IWANK\DOCUMENTS\DEVELOPMENT\OGRE\BUILD\BULLET3-3.24\SRC\LINEARMATH\BTTHREADS.CPP
^C:\USERS\IWANK\DOCUMENTS\DEVELOPMENT\OGRE\BUILD\BULLET3-3.24\SRC\LINEARMATH\BTVECTOR3.CPP
/c /I"C:\USERS\IWANK\DOCUMENTS\DEVELOPMENT\OGRE\BUILD\BULLET3-3.24\SRC" /Zi /nologo /W3 /WX- /diagnostics:column /O2 /Ob1 /D _MBCS /D WIN32 /D NDEBUG /D _WIN64 /D USE_GRAPHICAL_BENCHMARK /D _CRT_SECURE_NO_WARNINGS /D _CRT_SECURE_NO_DEPRECATE /D _SCL_SECURE_NO_WARNINGS /D "CMAKE_INTDIR=\"RelWithDebInfo\"" /GF /Gm- /EHsc /MD /GS /Gy /fp:fast /Zc:wchar_t /Zc:forScope /Zc:inline /GR- /Fo"LINEARMATH.DIR\RELWITHDEBINFO\\" /Fd"C:\USERS\IWANK\DOCUMENTS\DEVELOPMENT\OGRE\BUILD\BULLET3-3.24\LIB\RELWITHDEBINFO\LINEARMATH.PDB" /external:W3 /Gd /TP /wd4244 /wd4267 C:\USERS\IWANK\DOCUMENTS\DEVELOPMENT\OGRE\BUILD\BULLET3-3.24\SRC\LINEARMATH\BTVECTOR3.CPP
^C:\USERS\IWANK\DOCUMENTS\DEVELOPMENT\OGRE\BUILD\BULLET3-3.24\SRC\LINEARMATH\TASKSCHEDULER\BTTASKSCHEDULER.CPP
/c /I"C:\USERS\IWANK\DOCUMENTS\DEVELOPMENT\OGRE\BUILD\BULLET3-3.24\SRC" /Zi /nologo /W3 /WX- /diagnostics:column /O2 /Ob1 /D _MBCS /D WIN32 /D NDEBUG /D _WIN64 /D USE_GRAPHICAL_BENCHMARK /D _CRT_SECURE_NO_WARNINGS /D _CRT_SECURE_NO_DEPRECATE /D _SCL_SECURE_NO_WARNINGS /D "CMAKE_INTDIR=\"RelWithDebInfo\"" /GF /Gm- /EHsc /MD /GS /Gy /fp:fast /Zc:wchar_t /Zc:forScope /Zc:inline /GR- /Fo"LINEARMATH.DIR\RELWITHDEBINFO\\" /Fd"C:\USERS\IWANK\DOCUMENTS\DEVELOPMENT\OGRE\BUILD\BULLET3-3.24\LIB\RELWITHDEBINFO\LINEARMATH.PDB" /external:W3 /Gd /TP /wd4244 /wd4267 C:\USERS\IWANK\DOCUMENTS\DEVELOPMENT\OGRE\BUILD\BULLET3-3.24\SRC\LINEARMATH\TASKSCHEDULER\BTTASKSCHEDULER.CPP
^C:\USERS\IWANK\DOCUMENTS\DEVELOPMENT\OGRE\BUILD\BULLET3-3.24\SRC\LINEARMATH\TASKSCHEDULER\BTTHREADSUPPORTPOSIX.CPP
/c /I"C:\USERS\IWANK\DOCUMENTS\DEVELOPMENT\OGRE\BUILD\BULLET3-3.24\SRC" /Zi /nologo /W3 /WX- /diagnostics:column /O2 /Ob1 /D _MBCS /D WIN32 /D NDEBUG /D _WIN64 /D USE_GRAPHICAL_BENCHMARK /D _CRT_SECURE_NO_WARNINGS /D _CRT_SECURE_NO_DEPRECATE /D _SCL_SECURE_NO_WARNINGS /D "CMAKE_INTDIR=\"RelWithDebInfo\"" /GF /Gm- /EHsc /MD /GS /Gy /fp:fast /Zc:wchar_t /Zc:forScope /Zc:inline /GR- /Fo"LINEARMATH.DIR\RELWITHDEBINFO\\" /Fd"C:\USERS\IWANK\DOCUMENTS\DEVELOPMENT\OGRE\BUILD\BULLET3-3.24\LIB\RELWITHDEBINFO\LINEARMATH.PDB" /external:W3 /Gd /TP /wd4244 /wd4267 C:\USERS\IWANK\DOCUMENTS\DEVELOPMENT\OGRE\BUILD\BULLET3-3.24\SRC\LINEARMATH\TASKSCHEDULER\BTTHREADSUPPORTPOSIX.CPP
^C:\USERS\IWANK\DOCUMENTS\DEVELOPMENT\OGRE\BUILD\BULLET3-3.24\SRC\LINEARMATH\TASKSCHEDULER\BTTHREADSUPPORTWIN32.CPP
/c /I"C:\USERS\IWANK\DOCUMENTS\DEVELOPMENT\OGRE\BUILD\BULLET3-3.24\SRC" /Zi /nologo /W3 /WX- /diagnostics:column /O2 /Ob1 /D _MBCS /D WIN32 /D NDEBUG /D _WIN64 /D USE_GRAPHICAL_BENCHMARK /D _CRT_SECURE_NO_WARNINGS /D _CRT_SECURE_NO_DEPRECATE /D _SCL_SECURE_NO_WARNINGS /D "CMAKE_INTDIR=\"RelWithDebInfo\"" /GF /Gm- /EHsc /MD /GS /Gy /fp:fast /Zc:wchar_t /Zc:forScope /Zc:inline /GR- /Fo"LINEARMATH.DIR\RELWITHDEBINFO\\" /Fd"C:\USERS\IWANK\DOCUMENTS\DEVELOPMENT\OGRE\BUILD\BULLET3-3.24\LIB\RELWITHDEBINFO\LINEARMATH.PDB" /external:W3 /Gd /TP /wd4244 /wd4267 C:\USERS\IWANK\DOCUMENTS\DEVELOPMENT\OGRE\BUILD\BULLET3-3.24\SRC\LINEARMATH\TASKSCHEDULER\BTTHREADSUPPORTWIN32.CPP
