^C:\USERS\IWANK\DOCUMENTS\DEVELOPMENT\RENDER\EXTREME BEER PONG\OBJIMPORTER.CPP
/c /ZI /JMC /nologo /W3 /WX- /diagnostics:column /sdl /Od /D _DEBUG /D _CONSOLE /D _UNICODE /D UNICODE /Gm- /EHsc /RTC1 /MDd /GS /fp:precise /permissive /Zc:wchar_t /Zc:forScope /Zc:inline /Fo"X64\DEBUG\\" /Fd"X64\DEBUG\VC142.PDB" /external:W3 /Gd /TP /FC C:\USERS\IWANK\DOCUMENTS\DEVELOPMENT\RENDER\EXTREME BEER PONG\OBJIMPORTER.CPP
^C:\USERS\IWANK\DOCUMENTS\DEVELOPMENT\RENDER\EXTREME BEER PONG\RTGRAPHICS_3D.CPP
/c /ZI /JMC /nologo /W3 /WX- /diagnostics:column /sdl /Od /D _DEBUG /D _CONSOLE /D _UNICODE /D UNICODE /Gm- /EHsc /RTC1 /MDd /GS /fp:precise /permissive /Zc:wchar_t /Zc:forScope /Zc:inline /Fo"X64\DEBUG\\" /Fd"X64\DEBUG\VC142.PDB" /external:W3 /Gd /TP /FC C:\USERS\IWANK\DOCUMENTS\DEVELOPMENT\RENDER\EXTREME BEER PONG\RTGRAPHICS_3D.CPP
^C:\USERS\IWANK\DOCUMENTS\DEVELOPMENT\RENDER\EXTREME BEER PONG\SRC\AIWRAPPER.CPP
/c /ZI /JMC /nologo /W3 /WX- /diagnostics:column /sdl /Od /D _DEBUG /D _CONSOLE /D _UNICODE /D UNICODE /Gm- /EHsc /RTC1 /MDd /GS /fp:precise /permissive /Zc:wchar_t /Zc:forScope /Zc:inline /Fo"X64\DEBUG\\" /Fd"X64\DEBUG\VC142.PDB" /external:W3 /Gd /TP /FC C:\USERS\IWANK\DOCUMENTS\DEVELOPMENT\RENDER\EXTREME BEER PONG\SRC\AIWRAPPER.CPP
^C:\USERS\IWANK\DOCUMENTS\DEVELOPMENT\RENDER\EXTREME BEER PONG\SRC\CGPRINCIPLEAXES.CPP
/c /ZI /JMC /nologo /W3 /WX- /diagnostics:column /sdl /Od /D _DEBUG /D _CONSOLE /D _UNICODE /D UNICODE /Gm- /EHsc /RTC1 /MDd /GS /fp:precise /permissive /Zc:wchar_t /Zc:forScope /Zc:inline /Fo"X64\DEBUG\\" /Fd"X64\DEBUG\VC142.PDB" /external:W3 /Gd /TP /FC C:\USERS\IWANK\DOCUMENTS\DEVELOPMENT\RENDER\EXTREME BEER PONG\SRC\CGPRINCIPLEAXES.CPP
^C:\USERS\IWANK\DOCUMENTS\DEVELOPMENT\RENDER\EXTREME BEER PONG\SRC\CGTEXTUREDQUAD.CPP
/c /ZI /JMC /nologo /W3 /WX- /diagnostics:column /sdl /Od /D _DEBUG /D _CONSOLE /D _UNICODE /D UNICODE /Gm- /EHsc /RTC1 /MDd /GS /fp:precise /permissive /Zc:wchar_t /Zc:forScope /Zc:inline /Fo"X64\DEBUG\\" /Fd"X64\DEBUG\VC142.PDB" /external:W3 /Gd /TP /FC C:\USERS\IWANK\DOCUMENTS\DEVELOPMENT\RENDER\EXTREME BEER PONG\SRC\CGTEXTUREDQUAD.CPP
^C:\USERS\IWANK\DOCUMENTS\DEVELOPMENT\RENDER\EXTREME BEER PONG\SRC\GURIFFMODEL.CPP
/c /ZI /JMC /nologo /W3 /WX- /diagnostics:column /sdl /Od /D _DEBUG /D _CONSOLE /D _UNICODE /D UNICODE /Gm- /EHsc /RTC1 /MDd /GS /fp:precise /permissive /Zc:wchar_t /Zc:forScope /Zc:inline /Fo"X64\DEBUG\\" /Fd"X64\DEBUG\VC142.PDB" /external:W3 /Gd /TP /FC C:\USERS\IWANK\DOCUMENTS\DEVELOPMENT\RENDER\EXTREME BEER PONG\SRC\GURIFFMODEL.CPP
^C:\USERS\IWANK\DOCUMENTS\DEVELOPMENT\RENDER\EXTREME BEER PONG\SRC\MESHVBOS.CPP
/c /ZI /JMC /nologo /W3 /WX- /diagnostics:column /sdl /Od /D _DEBUG /D _CONSOLE /D _UNICODE /D UNICODE /Gm- /EHsc /RTC1 /MDd /GS /fp:precise /permissive /Zc:wchar_t /Zc:forScope /Zc:inline /Fo"X64\DEBUG\\" /Fd"X64\DEBUG\VC142.PDB" /external:W3 /Gd /TP /FC C:\USERS\IWANK\DOCUMENTS\DEVELOPMENT\RENDER\EXTREME BEER PONG\SRC\MESHVBOS.CPP
^C:\USERS\IWANK\DOCUMENTS\DEVELOPMENT\RENDER\EXTREME BEER PONG\SRC\SCENEVBOS.CPP
/c /ZI /JMC /nologo /W3 /WX- /diagnostics:column /sdl /Od /D _DEBUG /D _CONSOLE /D _UNICODE /D UNICODE /Gm- /EHsc /RTC1 /MDd /GS /fp:precise /permissive /Zc:wchar_t /Zc:forScope /Zc:inline /Fo"X64\DEBUG\\" /Fd"X64\DEBUG\VC142.PDB" /external:W3 /Gd /TP /FC C:\USERS\IWANK\DOCUMENTS\DEVELOPMENT\RENDER\EXTREME BEER PONG\SRC\SCENEVBOS.CPP
^C:\USERS\IWANK\DOCUMENTS\DEVELOPMENT\RENDER\EXTREME BEER PONG\SRC\SHADER_SETUP.CPP
/c /ZI /JMC /nologo /W3 /WX- /diagnostics:column /sdl /Od /D _DEBUG /D _CONSOLE /D _UNICODE /D UNICODE /Gm- /EHsc /RTC1 /MDd /GS /fp:precise /permissive /Zc:wchar_t /Zc:forScope /Zc:inline /Fo"X64\DEBUG\\" /Fd"X64\DEBUG\VC142.PDB" /external:W3 /Gd /TP /FC C:\USERS\IWANK\DOCUMENTS\DEVELOPMENT\RENDER\EXTREME BEER PONG\SRC\SHADER_SETUP.CPP
^C:\USERS\IWANK\DOCUMENTS\DEVELOPMENT\RENDER\EXTREME BEER PONG\SRC\TEXTURE_LOADER.CPP
/c /ZI /JMC /nologo /W3 /WX- /diagnostics:column /sdl /Od /D _DEBUG /D _CONSOLE /D _UNICODE /D UNICODE /Gm- /EHsc /RTC1 /MDd /GS /fp:precise /permissive /Zc:wchar_t /Zc:forScope /Zc:inline /Fo"X64\DEBUG\\" /Fd"X64\DEBUG\VC142.PDB" /external:W3 /Gd /TP /FC C:\USERS\IWANK\DOCUMENTS\DEVELOPMENT\RENDER\EXTREME BEER PONG\SRC\TEXTURE_LOADER.CPP
