^D:\RENDER\RTGRAPHICS_3D_VBO\OBJIMPORTER.CPP|D:\RENDER\RTGRAPHICS_3D_VBO\RTGRAPHICS_3D.CPP|D:\RENDER\RTGRAPHICS_3D_VBO\SRC\AIWRAPPER.CPP|D:\RENDER\RTGRAPHICS_3D_VBO\SRC\CGPRINCIPLEAXES.CPP|D:\RENDER\RTGRAPHICS_3D_VBO\SRC\CGTEXTUREDQUAD.CPP|D:\RENDER\RTGRAPHICS_3D_VBO\SRC\MESHVBOS.CPP|D:\RENDER\RTGRAPHICS_3D_VBO\SRC\SCENEVBOS.CPP|D:\RENDER\RTGRAPHICS_3D_VBO\SRC\SHADER_SETUP.CPP|D:\RENDER\RTGRAPHICS_3D_VBO\SRC\TEXTURE_LOADER.CPP
D:\RENDER\RTGRAPHICS_3D_VBO\X64\DEBUG\VC142.PDB
D:\RENDER\RTGRAPHICS_3D_VBO\X64\DEBUG\VC142.IDB
D:\RENDER\RTGRAPHICS_3D_VBO\X64\DEBUG\TEXTURE_LOADER.OBJ
D:\RENDER\RTGRAPHICS_3D_VBO\X64\DEBUG\SHADER_SETUP.OBJ
D:\RENDER\RTGRAPHICS_3D_VBO\X64\DEBUG\SCENEVBOS.OBJ
D:\RENDER\RTGRAPHICS_3D_VBO\X64\DEBUG\MESHVBOS.OBJ
D:\RENDER\RTGRAPHICS_3D_VBO\X64\DEBUG\CGTEXTUREDQUAD.OBJ
D:\RENDER\RTGRAPHICS_3D_VBO\X64\DEBUG\CGPRINCIPLEAXES.OBJ
D:\RENDER\RTGRAPHICS_3D_VBO\X64\DEBUG\AIWRAPPER.OBJ
D:\RENDER\RTGRAPHICS_3D_VBO\X64\DEBUG\RTGRAPHICS_3D.OBJ
D:\RENDER\RTGRAPHICS_3D_VBO\X64\DEBUG\OBJIMPORTER.OBJ
^D:\RENDER\RTGRAPHICS_3D_VBO\OBJIMPORTER.CPP
D:\RENDER\RTGRAPHICS_3D_VBO\X64\DEBUG\VC142.PDB
^D:\RENDER\RTGRAPHICS_3D_VBO\SRC\AIWRAPPER.CPP
D:\RENDER\RTGRAPHICS_3D_VBO\X64\DEBUG\VC142.PDB
^D:\RENDER\RTGRAPHICS_3D_VBO\SRC\CGPRINCIPLEAXES.CPP
D:\RENDER\RTGRAPHICS_3D_VBO\X64\DEBUG\VC142.PDB
^D:\RENDER\RTGRAPHICS_3D_VBO\SRC\CGTEXTUREDQUAD.CPP
D:\RENDER\RTGRAPHICS_3D_VBO\X64\DEBUG\VC142.PDB
^D:\RENDER\RTGRAPHICS_3D_VBO\SRC\MESHVBOS.CPP
D:\RENDER\RTGRAPHICS_3D_VBO\X64\DEBUG\VC142.PDB
^D:\RENDER\RTGRAPHICS_3D_VBO\SRC\SCENEVBOS.CPP
D:\RENDER\RTGRAPHICS_3D_VBO\X64\DEBUG\VC142.PDB
^D:\RENDER\RTGRAPHICS_3D_VBO\SRC\SHADER_SETUP.CPP
D:\RENDER\RTGRAPHICS_3D_VBO\X64\DEBUG\VC142.PDB
^D:\RENDER\RTGRAPHICS_3D_VBO\SRC\TEXTURE_LOADER.CPP
D:\RENDER\RTGRAPHICS_3D_VBO\X64\DEBUG\VC142.PDB
^D:\RENDER\RTGRAPHICS_3D_VBO\RTGRAPHICS_3D.CPP|D:\RENDER\RTGRAPHICS_3D_VBO\SRC\GURIFFMODEL.CPP
D:\RENDER\RTGRAPHICS_3D_VBO\X64\DEBUG\VC142.PDB
D:\RENDER\RTGRAPHICS_3D_VBO\X64\DEBUG\VC142.IDB
D:\RENDER\RTGRAPHICS_3D_VBO\X64\DEBUG\GURIFFMODEL.OBJ
^D:\RENDER\RTGRAPHICS_3D_VBO\SRC\GURIFFMODEL.CPP
D:\RENDER\RTGRAPHICS_3D_VBO\X64\DEBUG\GURIFFMODEL.OBJ
^D:\RENDER\RTGRAPHICS_3D_VBO\RTGRAPHICS_3D.CPP
D:\RENDER\RTGRAPHICS_3D_VBO\X64\DEBUG\VC142.PDB
D:\RENDER\RTGRAPHICS_3D_VBO\X64\DEBUG\VC142.IDB
D:\RENDER\RTGRAPHICS_3D_VBO\X64\DEBUG\RTGRAPHICS_3D.OBJ
^C:\USERS\IWANK\DOCUMENTS\DEVELOPMENT\RENDER\RTGRAPHICS_3D_VBO\OBJIMPORTER.CPP|C:\USERS\IWANK\DOCUMENTS\DEVELOPMENT\RENDER\RTGRAPHICS_3D_VBO\RTGRAPHICS_3D.CPP|C:\USERS\IWANK\DOCUMENTS\DEVELOPMENT\RENDER\RTGRAPHICS_3D_VBO\SRC\AIWRAPPER.CPP|C:\USERS\IWANK\DOCUMENTS\DEVELOPMENT\RENDER\RTGRAPHICS_3D_VBO\SRC\CGPRINCIPLEAXES.CPP|C:\USERS\IWANK\DOCUMENTS\DEVELOPMENT\RENDER\RTGRAPHICS_3D_VBO\SRC\CGTEXTUREDQUAD.CPP|C:\USERS\IWANK\DOCUMENTS\DEVELOPMENT\RENDER\RTGRAPHICS_3D_VBO\SRC\GURIFFMODEL.CPP|C:\USERS\IWANK\DOCUMENTS\DEVELOPMENT\RENDER\RTGRAPHICS_3D_VBO\SRC\MESHVBOS.CPP|C:\USERS\IWANK\DOCUMENTS\DEVELOPMENT\RENDER\RTGRAPHICS_3D_VBO\SRC\SCENEVBOS.CPP|C:\USERS\IWANK\DOCUMENTS\DEVELOPMENT\RENDER\RTGRAPHICS_3D_VBO\SRC\SHADER_SETUP.CPP|C:\USERS\IWANK\DOCUMENTS\DEVELOPMENT\RENDER\RTGRAPHICS_3D_VBO\SRC\TEXTURE_LOADER.CPP
C:\USERS\IWANK\DOCUMENTS\DEVELOPMENT\RENDER\RTGRAPHICS_3D_VBO\X64\DEBUG\VC142.PDB
C:\USERS\IWANK\DOCUMENTS\DEVELOPMENT\RENDER\RTGRAPHICS_3D_VBO\X64\DEBUG\VC142.IDB
C:\USERS\IWANK\DOCUMENTS\DEVELOPMENT\RENDER\RTGRAPHICS_3D_VBO\X64\DEBUG\TEXTURE_LOADER.OBJ
C:\USERS\IWANK\DOCUMENTS\DEVELOPMENT\RENDER\RTGRAPHICS_3D_VBO\X64\DEBUG\SHADER_SETUP.OBJ
C:\USERS\IWANK\DOCUMENTS\DEVELOPMENT\RENDER\RTGRAPHICS_3D_VBO\X64\DEBUG\SCENEVBOS.OBJ
C:\USERS\IWANK\DOCUMENTS\DEVELOPMENT\RENDER\RTGRAPHICS_3D_VBO\X64\DEBUG\MESHVBOS.OBJ
C:\USERS\IWANK\DOCUMENTS\DEVELOPMENT\RENDER\RTGRAPHICS_3D_VBO\X64\DEBUG\GURIFFMODEL.OBJ
C:\USERS\IWANK\DOCUMENTS\DEVELOPMENT\RENDER\RTGRAPHICS_3D_VBO\X64\DEBUG\CGTEXTUREDQUAD.OBJ
C:\USERS\IWANK\DOCUMENTS\DEVELOPMENT\RENDER\RTGRAPHICS_3D_VBO\X64\DEBUG\CGPRINCIPLEAXES.OBJ
C:\USERS\IWANK\DOCUMENTS\DEVELOPMENT\RENDER\RTGRAPHICS_3D_VBO\X64\DEBUG\AIWRAPPER.OBJ
C:\USERS\IWANK\DOCUMENTS\DEVELOPMENT\RENDER\RTGRAPHICS_3D_VBO\X64\DEBUG\RTGRAPHICS_3D.OBJ
C:\USERS\IWANK\DOCUMENTS\DEVELOPMENT\RENDER\RTGRAPHICS_3D_VBO\X64\DEBUG\OBJIMPORTER.OBJ
^C:\USERS\IWANK\DOCUMENTS\DEVELOPMENT\RENDER\RTGRAPHICS_3D_VBO\OBJIMPORTER.CPP
C:\USERS\IWANK\DOCUMENTS\DEVELOPMENT\RENDER\RTGRAPHICS_3D_VBO\X64\DEBUG\VC142.PDB
^C:\USERS\IWANK\DOCUMENTS\DEVELOPMENT\RENDER\RTGRAPHICS_3D_VBO\SRC\AIWRAPPER.CPP
C:\USERS\IWANK\DOCUMENTS\DEVELOPMENT\RENDER\RTGRAPHICS_3D_VBO\X64\DEBUG\VC142.PDB
^C:\USERS\IWANK\DOCUMENTS\DEVELOPMENT\RENDER\RTGRAPHICS_3D_VBO\SRC\CGPRINCIPLEAXES.CPP
C:\USERS\IWANK\DOCUMENTS\DEVELOPMENT\RENDER\RTGRAPHICS_3D_VBO\X64\DEBUG\VC142.PDB
^C:\USERS\IWANK\DOCUMENTS\DEVELOPMENT\RENDER\RTGRAPHICS_3D_VBO\SRC\CGTEXTUREDQUAD.CPP
C:\USERS\IWANK\DOCUMENTS\DEVELOPMENT\RENDER\RTGRAPHICS_3D_VBO\X64\DEBUG\VC142.PDB
^C:\USERS\IWANK\DOCUMENTS\DEVELOPMENT\RENDER\RTGRAPHICS_3D_VBO\SRC\GURIFFMODEL.CPP
C:\USERS\IWANK\DOCUMENTS\DEVELOPMENT\RENDER\RTGRAPHICS_3D_VBO\X64\DEBUG\VC142.PDB
^C:\USERS\IWANK\DOCUMENTS\DEVELOPMENT\RENDER\RTGRAPHICS_3D_VBO\SRC\MESHVBOS.CPP
C:\USERS\IWANK\DOCUMENTS\DEVELOPMENT\RENDER\RTGRAPHICS_3D_VBO\X64\DEBUG\VC142.PDB
^C:\USERS\IWANK\DOCUMENTS\DEVELOPMENT\RENDER\RTGRAPHICS_3D_VBO\SRC\SCENEVBOS.CPP
C:\USERS\IWANK\DOCUMENTS\DEVELOPMENT\RENDER\RTGRAPHICS_3D_VBO\X64\DEBUG\VC142.PDB
^C:\USERS\IWANK\DOCUMENTS\DEVELOPMENT\RENDER\RTGRAPHICS_3D_VBO\SRC\SHADER_SETUP.CPP
C:\USERS\IWANK\DOCUMENTS\DEVELOPMENT\RENDER\RTGRAPHICS_3D_VBO\X64\DEBUG\VC142.PDB
^C:\USERS\IWANK\DOCUMENTS\DEVELOPMENT\RENDER\RTGRAPHICS_3D_VBO\SRC\TEXTURE_LOADER.CPP
C:\USERS\IWANK\DOCUMENTS\DEVELOPMENT\RENDER\RTGRAPHICS_3D_VBO\X64\DEBUG\VC142.PDB
^C:\USERS\IWANK\DOCUMENTS\DEVELOPMENT\RENDER\RTGRAPHICS_3D_VBO\RTGRAPHICS_3D.CPP
C:\USERS\IWANK\DOCUMENTS\DEVELOPMENT\RENDER\RTGRAPHICS_3D_VBO\X64\DEBUG\VC142.PDB
C:\USERS\IWANK\DOCUMENTS\DEVELOPMENT\RENDER\RTGRAPHICS_3D_VBO\X64\DEBUG\VC142.IDB
C:\USERS\IWANK\DOCUMENTS\DEVELOPMENT\RENDER\RTGRAPHICS_3D_VBO\X64\DEBUG\RTGRAPHICS_3D.OBJ
