^C:\USERS\IWANK\DOCUMENTS\DEVELOPMENT\OGRE\BUILD\BULLET3-3.24\SRC\BULLET3DYNAMICS\CMAKELISTS.TXT
setlocal
"C:\Program Files\CMake\bin\cmake.exe" -SC:/Users/iwank/Documents/Development/ogre/build/bullet3-3.24 -BC:/Users/iwank/Documents/Development/ogre/build/bullet3-3.24 --check-stamp-file C:/Users/iwank/Documents/Development/ogre/build/bullet3-3.24/src/Bullet3Dynamics/CMakeFiles/generate.stamp
if %errorlevel% neq 0 goto :cmEnd
:cmEnd
endlocal & call :cmErrorLevel %errorlevel% & goto :cmDone
:cmErrorLevel
exit /b %1
:cmDone
if %errorlevel% neq 0 goto :VCEnd
